…
    ## Warning in `==.default`(response, c("Excellent", "Very good", "Good",
    ## "Fair", : longer object length is not a multiple of shorter object length

    ## Warning in is.na(e1) | is.na(e2): longer object length is not a multiple of
    ## shorter object length

    ## # A tibble: 1,613 x 23
    ##     year locationabbr locationdesc class topic question response
    ##    <int> <chr>        <chr>        <chr> <chr> <chr>    <fct>   
    ##  1  2010 AL           AL - Jeffer… Heal… Over… How is … Poor    
    ##  2  2010 AZ           AZ - Pinal … Heal… Over… How is … Poor    
    ##  3  2010 CA           CA - Alamed… Heal… Over… How is … Poor    
    ##  4  2010 CA           CA - Rivers… Heal… Over… How is … Poor    
    ##  5  2010 CA           CA - San Be… Heal… Over… How is … Poor    
    ##  6  2010 CO           CO - Dougla… Heal… Over… How is … Poor    
    ##  7  2010 CO           CO - Jeffer… Heal… Over… How is … Poor    
    ##  8  2010 CT           CT - Hartfo… Heal… Over… How is … Poor    
    ##  9  2010 DE           DE - Kent C… Heal… Over… How is … Poor    
    ## 10  2010 FL           FL - Baker … Heal… Over… How is … Poor    
    ## # … with 1,603 more rows, and 16 more variables: sample_size <int>,
    ## #   data_value <dbl>, confidence_limit_low <dbl>,
    ## #   confidence_limit_high <dbl>, display_order <int>,
    ## #   data_value_unit <chr>, data_value_type <chr>,
    ## #   data_value_footnote_symbol <chr>, data_value_footnote <chr>,
    ## #   data_source <chr>, class_id <chr>, topic_id <chr>, location_id <chr>,
    ## #   question_id <chr>, respid <chr>, geo_location <chr>
…
